// Jest Snapshot v1, https://goo.gl/fbAQLP

exports[`CurrencyInput should render correctly the component 1`] = `
<View
  style={
    Object {
      "alignItems": "center",
      "marginBottom": 20,
      "marginTop": 20,
    }
  }
>
  <RCTScrollView
    data={
      Array [
        "CHF",
        "€",
        "£",
      ]
    }
    disableVirtualization={false}
    getItem={[Function]}
    getItemCount={[Function]}
    horizontal={false}
    initialNumToRender={10}
    keyExtractor={[Function]}
    maxToRenderPerBatch={10}
    onContentSizeChange={[Function]}
    onEndReachedThreshold={2}
    onLayout={[Function]}
    onMomentumScrollEnd={[Function]}
    onScroll={[Function]}
    onScrollBeginDrag={[Function]}
    onScrollEndDrag={[Function]}
    removeClippedSubviews={false}
    renderItem={[Function]}
    scrollEventThrottle={50}
    stickyHeaderIndices={Array []}
    updateCellsBatchingPeriod={50}
    viewabilityConfigCallbackPairs={Array []}
    windowSize={21}
  >
    <View>
      <View
        onLayout={[Function]}
        style={null}
      >
        <View
          style={
            Object {
              "flexDirection": "row",
            }
          }
        >
          <View
            accessible={true}
            focusable={true}
            onClick={[Function]}
            onResponderGrant={[Function]}
            onResponderMove={[Function]}
            onResponderRelease={[Function]}
            onResponderTerminate={[Function]}
            onResponderTerminationRequest={[Function]}
            onStartShouldSetResponder={[Function]}
            style={
              Object {
                "alignItems": "center",
                "borderColor": "#e3e4e4",
                "borderRadius": 5,
                "borderWidth": 1,
                "height": 100,
                "justifyContent": "center",
                "margin": 10,
                "opacity": 1,
                "width": 100,
              }
            }
          >
            <Text
              style={
                Array [
                  Object {
                    "fontSize": 25,
                  },
                  Object {
                    "borderColor": "#e3e4e4",
                  },
                ]
              }
            >
              CHF
            </Text>
          </View>
          <View
            accessible={true}
            focusable={true}
            onClick={[Function]}
            onResponderGrant={[Function]}
            onResponderMove={[Function]}
            onResponderRelease={[Function]}
            onResponderTerminate={[Function]}
            onResponderTerminationRequest={[Function]}
            onStartShouldSetResponder={[Function]}
            style={
              Object {
                "alignItems": "center",
                "borderColor": "#e3e4e4",
                "borderRadius": 5,
                "borderWidth": 1,
                "height": 100,
                "justifyContent": "center",
                "margin": 10,
                "opacity": 1,
                "width": 100,
              }
            }
          >
            <Text
              style={
                Array [
                  Object {
                    "fontSize": 25,
                  },
                  Object {
                    "borderColor": "#e3e4e4",
                  },
                ]
              }
            >
              €
            </Text>
          </View>
          <View
            accessible={true}
            focusable={true}
            onClick={[Function]}
            onResponderGrant={[Function]}
            onResponderMove={[Function]}
            onResponderRelease={[Function]}
            onResponderTerminate={[Function]}
            onResponderTerminationRequest={[Function]}
            onStartShouldSetResponder={[Function]}
            style={
              Object {
                "alignItems": "center",
                "borderColor": "#e3e4e4",
                "borderRadius": 5,
                "borderWidth": 1,
                "height": 100,
                "justifyContent": "center",
                "margin": 10,
                "opacity": 1,
                "width": 100,
              }
            }
          >
            <Text
              style={
                Array [
                  Object {
                    "fontSize": 25,
                  },
                  Object {
                    "borderColor": "#e3e4e4",
                  },
                ]
              }
            >
              £
            </Text>
          </View>
        </View>
      </View>
    </View>
  </RCTScrollView>
</View>
`;

exports[`CurrencyInput should show an error with the error props 1`] = `
<View
  style={
    Object {
      "alignItems": "center",
      "marginBottom": 20,
      "marginTop": 20,
    }
  }
>
  <Text
    style={
      Object {
        "color": "#dc3545",
      }
    }
  >
    errorTest
  </Text>
  <RCTScrollView
    data={
      Array [
        "CHF",
        "€",
        "£",
      ]
    }
    disableVirtualization={false}
    getItem={[Function]}
    getItemCount={[Function]}
    horizontal={false}
    initialNumToRender={10}
    keyExtractor={[Function]}
    maxToRenderPerBatch={10}
    onContentSizeChange={[Function]}
    onEndReachedThreshold={2}
    onLayout={[Function]}
    onMomentumScrollEnd={[Function]}
    onScroll={[Function]}
    onScrollBeginDrag={[Function]}
    onScrollEndDrag={[Function]}
    removeClippedSubviews={false}
    renderItem={[Function]}
    scrollEventThrottle={50}
    stickyHeaderIndices={Array []}
    updateCellsBatchingPeriod={50}
    viewabilityConfigCallbackPairs={Array []}
    windowSize={21}
  >
    <View>
      <View
        onLayout={[Function]}
        style={null}
      >
        <View
          style={
            Object {
              "flexDirection": "row",
            }
          }
        >
          <View
            accessible={true}
            focusable={true}
            onClick={[Function]}
            onResponderGrant={[Function]}
            onResponderMove={[Function]}
            onResponderRelease={[Function]}
            onResponderTerminate={[Function]}
            onResponderTerminationRequest={[Function]}
            onStartShouldSetResponder={[Function]}
            style={
              Object {
                "alignItems": "center",
                "borderColor": "#e3e4e4",
                "borderRadius": 5,
                "borderWidth": 1,
                "height": 100,
                "justifyContent": "center",
                "margin": 10,
                "opacity": 1,
                "width": 100,
              }
            }
          >
            <Text
              style={
                Array [
                  Object {
                    "fontSize": 25,
                  },
                  Object {
                    "borderColor": "#e3e4e4",
                  },
                ]
              }
            >
              CHF
            </Text>
          </View>
          <View
            accessible={true}
            focusable={true}
            onClick={[Function]}
            onResponderGrant={[Function]}
            onResponderMove={[Function]}
            onResponderRelease={[Function]}
            onResponderTerminate={[Function]}
            onResponderTerminationRequest={[Function]}
            onStartShouldSetResponder={[Function]}
            style={
              Object {
                "alignItems": "center",
                "borderColor": "#e3e4e4",
                "borderRadius": 5,
                "borderWidth": 1,
                "height": 100,
                "justifyContent": "center",
                "margin": 10,
                "opacity": 1,
                "width": 100,
              }
            }
          >
            <Text
              style={
                Array [
                  Object {
                    "fontSize": 25,
                  },
                  Object {
                    "borderColor": "#e3e4e4",
                  },
                ]
              }
            >
              €
            </Text>
          </View>
          <View
            accessible={true}
            focusable={true}
            onClick={[Function]}
            onResponderGrant={[Function]}
            onResponderMove={[Function]}
            onResponderRelease={[Function]}
            onResponderTerminate={[Function]}
            onResponderTerminationRequest={[Function]}
            onStartShouldSetResponder={[Function]}
            style={
              Object {
                "alignItems": "center",
                "borderColor": "#e3e4e4",
                "borderRadius": 5,
                "borderWidth": 1,
                "height": 100,
                "justifyContent": "center",
                "margin": 10,
                "opacity": 1,
                "width": 100,
              }
            }
          >
            <Text
              style={
                Array [
                  Object {
                    "fontSize": 25,
                  },
                  Object {
                    "borderColor": "#e3e4e4",
                  },
                ]
              }
            >
              £
            </Text>
          </View>
        </View>
      </View>
    </View>
  </RCTScrollView>
</View>
`;
