// Jest Snapshot v1, https://goo.gl/fbAQLP

exports[`DateInput should render correctly the component 1`] = `
<View
  style={
    Object {
      "width": "100%",
    }
  }
>
  <Text
    style={
      Object {
        "color": "black",
        "fontWeight": "400",
        "marginBottom": 10,
      }
    }
  >
    test
  </Text>
  <View
    accessible={true}
    focusable={true}
    onClick={[Function]}
    onResponderGrant={[Function]}
    onResponderMove={[Function]}
    onResponderRelease={[Function]}
    onResponderTerminate={[Function]}
    onResponderTerminationRequest={[Function]}
    onStartShouldSetResponder={[Function]}
    style={
      Array [
        Object {
          "borderColor": "#e3e4e4",
          "borderRadius": 5,
          "borderWidth": 1,
          "height": 35,
          "paddingLeft": 10,
        },
        Object {
          "paddingTop": 5,
        },
      ]
    }
  >
    <Text>
      19-02-2020
    </Text>
  </View>
</View>
`;
