// Jest Snapshot v1, https://goo.gl/fbAQLP

exports[`ContainerNewBudget should render correctly the component 1`] = `
<RCTScrollView
  contentContainerStyle={
    Object {
      "backgroundColor": "white",
      "flex": 1,
      "justifyContent": "space-between",
    }
  }
>
  <View>
    <View
      style={
        Object {
          "alignItems": "center",
          "flex": 1,
          "justifyContent": "center",
        }
      }
    >
      <Text
        style={
          Object {
            "color": "black",
            "fontSize": 42,
            "fontWeight": "bold",
          }
        }
      />
      <Text
        style={
          Array [
            Object {
              "color": "#707070",
              "fontSize": 14,
            },
            Object {
              "marginBottom": 30,
              "marginTop": 30,
              "textAlign": "center",
            },
          ]
        }
      >
        Test
      </Text>
      <View
        style={
          Array [
            Object {
              "marginBottom": 30,
            },
            Object {
              "paddingTop": 30,
            },
          ]
        }
      >
        <Text
          style={
            Object {
              "fontSize": 10,
              "textAlign": "center",
            }
          }
        />
        <View
          style={
            Object {
              "alignItems": "center",
            }
          }
        >
          <Image
            source={
              Object {
                "testUri": "../../../src/assets/images/logo_gettime.png",
              }
            }
            style={
              Object {
                "height": 40,
                "width": 80,
              }
            }
          />
        </View>
      </View>
    </View>
    <View
      style={
        Array [
          Object {
            "bottom": 0,
            "left": 0,
            "right": 0,
          },
          Object {
            "height": 0,
          },
          undefined,
        ]
      }
    />
  </View>
</RCTScrollView>
`;
